…
The cleaned state variable is joined to the ‘clean_data’ data frame.

# Bind the state abbreviation column in to clean_data
clean_data <- clean_data %>%
  left_join(states_data, by="state")

We can confirm the state cleaning has worked by counting the state abbreviations column - this has 51 entries - the 50 states + NA entries (which arise due to the large number of people completing this survey who live outside of America, as well as those who live in the District of Columbia which is not registered as a state).

temp <- clean_data[is.na(clean_data$state_abb),]
temp2 <- clean_data %>% 
  count(state_abb, sort = TRUE)
temp2

## # A tibble: 51 × 2
##    state_abb     n
##    <chr>     <int>
##  1 <NA>       5821
##  2 CA         2491
##  3 NY         2084
##  4 MA         1489
##  5 TX         1199
##  6 IL         1156
##  7 WA         1139
##  8 PA          900
##  9 VA          757
## 10 MN          688
## # … with 41 more rows
…
We further remove all total earnings data with a value of 0, as the earnings data is the dependent variable we are trying to explain.

regression_data <- regression_data[regression_data$tot_earnings_USD != 0,] %>% 
  mutate(log_earnings = log(tot_earnings_USD)) 

Based on these initial data transformations, we now create a naive model, regressing on the log of incomes, with a couple of basic variables.

model_1 <- lm(log_earnings ~ how_old_are_you + overall_years_of_professional_experience +
     years_of_experience_in_field, data = regression_data)

model_1 %>% get_regression_table()

## # A tibble: 21 × 7
##    term                   estimate std_error statistic p_value lower_ci upper_ci
##    <chr>                     <dbl>     <dbl>     <dbl>   <dbl>    <dbl>    <dbl>
##  1 intercept                10.9       0.036   307.      0       10.9     11.0  
##  2 how_old_are_you: 25-34    0.163     0.027     6.13    0        0.111    0.215
##  3 how_old_are_you: 35-44    0.191     0.029     6.55    0        0.134    0.248
##  4 how_old_are_you: 45-54    0.077     0.033     2.30    0.022    0.011    0.142
##  5 how_old_are_you: 55-64   -0.052     0.042    -1.23    0.218   -0.135    0.031
##  6 how_old_are_you: 65 o…   -0.069     0.083    -0.839   0.402   -0.232    0.093
##  7 how_old_are_you: unde…   -0.05      0.232    -0.215   0.83    -0.505    0.405
##  8 overall_years_of_prof…   -0.097     0.045    -2.17    0.03    -0.185   -0.009
##  9 overall_years_of_prof…   -0.109     0.042    -2.57    0.01    -0.192   -0.026
## 10 overall_years_of_prof…   -0.134     0.048    -2.80    0.005   -0.228   -0.04 
## # … with 11 more rows
…
Next we need to slightly adapt the column names of our dummy variables, in order to go forward with our regression analysis.

names(regression_data_dummies)[names(regression_data_dummies) == "highest_level_of_education_completed_Master's degree"] <- "highest_level_of_education_completed_Masters_degree"
names(regression_data_dummies)[names(regression_data_dummies) == "highest_level_of_education_completed_College degree"] <- "highest_level_of_education_completed_College_degree"
names(regression_data_dummies)[names(regression_data_dummies) == "highest_level_of_education_completed_High School"] <- "highest_level_of_education_completed_High_School"

After adjusting our data, we can now run our second regression model. Here we regress on the log of earnings using the explanatory variables of gender, professional experience, experience in the industry, education and race:

model_2 <- lm(log_earnings ~ how_old_are_you + overall_years_of_professional_experience +
     years_of_experience_in_field  + gender_Man + gender_Woman + highest_level_of_education_completed_College_degree + highest_level_of_education_completed_High_School + highest_level_of_education_completed_Masters_degree  + race_Asian + race_White + race_Hispanic + race_Black , data = regression_data_dummies)

model_2 %>% get_regression_table()

## # A tibble: 30 × 7
##    term                   estimate std_error statistic p_value lower_ci upper_ci
##    <chr>                     <dbl>     <dbl>     <dbl>   <dbl>    <dbl>    <dbl>
##  1 intercept                11.2       0.044   256.      0       11.1     11.3  
##  2 how_old_are_you: 25-34    0.102     0.026     3.98    0        0.052    0.152
##  3 how_old_are_you: 35-44    0.083     0.028     2.93    0.003    0.028    0.139
##  4 how_old_are_you: 45-54   -0.028     0.032    -0.855   0.392   -0.091    0.036
##  5 how_old_are_you: 55-64   -0.128     0.041    -3.13    0.002   -0.208   -0.048
##  6 how_old_are_you: 65 o…   -0.127     0.079    -1.60    0.109   -0.283    0.029
##  7 how_old_are_you: unde…   -0.081     0.223    -0.366   0.715   -0.518    0.355
##  8 overall_years_of_prof…    0.046     0.043     1.07    0.286   -0.038    0.13 
##  9 overall_years_of_prof…   -0.055     0.041    -1.34    0.18    -0.134    0.025
## 10 overall_years_of_prof…    0.039     0.046     0.853   0.394   -0.051    0.13 
## # … with 20 more rows
…
We then run a Variance inflation factor (VIF) analysis to get a sense of the multicollinearity within our regression variables.
Since overall years of professional experience has very high multicollinearity, we remove it in order to further improve our model.

model_3 <- lm(log_earnings ~ how_old_are_you  + years_of_experience_in_field  + gender_Man + gender_Woman + highest_level_of_education_completed_College_degree + highest_level_of_education_completed_High_School + highest_level_of_education_completed_Masters_degree  + race_Asian + race_White + race_Hispanic + race_Black , data = regression_data_dummies)

model_3 %>% get_regression_table()

## # A tibble: 23 × 7
##    term                   estimate std_error statistic p_value lower_ci upper_ci
##    <chr>                     <dbl>     <dbl>     <dbl>   <dbl>    <dbl>    <dbl>
##  1 intercept                11.1       0.037   300.      0       11.1     11.2  
##  2 how_old_are_you: 25-34    0.125     0.024     5.28    0        0.079    0.171
##  3 how_old_are_you: 35-44    0.133     0.025     5.31    0        0.084    0.182
##  4 how_old_are_you: 45-54    0.018     0.028     0.644   0.52    -0.037    0.072
##  5 how_old_are_you: 55-64   -0.099     0.035    -2.85    0.004   -0.167   -0.031
##  6 how_old_are_you: 65 o…   -0.091     0.074    -1.23    0.219   -0.235    0.054
##  7 how_old_are_you: unde…   -0.06      0.222    -0.271   0.786   -0.496    0.375
##  8 years_of_experience_i…    0.509     0.023    22.2     0        0.464    0.554
##  9 years_of_experience_i…    0.126     0.021     5.88    0        0.084    0.168
## 10 years_of_experience_i…    0.69      0.028    24.6     0        0.635    0.745
## # … with 13 more rows
…
